[{{ range $index, $page := .Site.Pages }}
{{- if ne $page.Type "json" -}}
{{- if ne $page.Data.Singular "legacy_id" -}}
{{- if and $index (gt $index 0) -}},{{- end }}
{
	"uri": "{{ $page.Permalink }}",
	"title": "{{ $page.Title}}",
	"layout": "{{ $page.Layout }}",
	{{if $page.Date }}"date": {{ $page.Date | jsonify }},{{- end -}}
	"konstrukteure": [{{ range $kindex, $konstrukteure := $page.Params.konstrukteure }}{{ if $kindex }}, {{ end }}"{{ $konstrukteure }}"{{ end }}],
    "fotografen": [{{ range $findex, $fotografen := $page.Params.fotografen }}{{ if $findex }}, {{ end }}"{{ $fotografen }}"{{ end }}],
    "uploadBy": "{{ $page.Params.uploadBy }}",
    {{- if not (in $page.Params.schlagworte "OPTIONAL") -}}
        "schlagworte": [{{ range $sindex, $schlagworte := $page.Params.schlagworte }}{{ if $sindex }}, {{ end }}"{{ $schlagworte }}"{{ end }}],
    {{- end -}}
	"content": {{$page.Plain | jsonify}},
	"comments": [ {{ with ($page.Resources.Match "*.md") }}
        {{ range . }}
       { "uploadBy": "{{ .Params.uploadBy}}", "content": {{.Plain | jsonify}} } ,
       {{ end }}
	{{- end -}} ]
}
{{- end -}}
{{- end -}}
{{- end -}}]

